^E:\DOCUMENTATIE\SMART GIT\RULEOFTHREE\RULEOFTHREE\RULEOFTHREE\CLASACARTE.CPP|E:\DOCUMENTATIE\SMART GIT\RULEOFTHREE\RULEOFTHREE\RULEOFTHREE\CLASALIBRARIE.CPP|E:\DOCUMENTATIE\SMART GIT\RULEOFTHREE\RULEOFTHREE\RULEOFTHREE\RULEOFTHREEPB.CPP
E:\DOCUMENTATIE\SMART GIT\RULEOFTHREE\RULEOFTHREE\RULEOFTHREE\DEBUG\VC141.PDB
E:\DOCUMENTATIE\SMART GIT\RULEOFTHREE\RULEOFTHREE\RULEOFTHREE\DEBUG\VC141.IDB
E:\DOCUMENTATIE\SMART GIT\RULEOFTHREE\RULEOFTHREE\RULEOFTHREE\DEBUG\RULEOFTHREEPB.OBJ
E:\DOCUMENTATIE\SMART GIT\RULEOFTHREE\RULEOFTHREE\RULEOFTHREE\DEBUG\CLASALIBRARIE.OBJ
E:\DOCUMENTATIE\SMART GIT\RULEOFTHREE\RULEOFTHREE\RULEOFTHREE\DEBUG\CLASACARTE.OBJ
^E:\DOCUMENTATIE\SMART GIT\RULEOFTHREE\RULEOFTHREE\RULEOFTHREE\CLASACARTE.CPP
E:\DOCUMENTATIE\SMART GIT\RULEOFTHREE\RULEOFTHREE\RULEOFTHREE\DEBUG\VC141.PDB
^E:\DOCUMENTATIE\SMART GIT\RULEOFTHREE\RULEOFTHREE\RULEOFTHREE\CLASALIBRARIE.CPP
E:\DOCUMENTATIE\SMART GIT\RULEOFTHREE\RULEOFTHREE\RULEOFTHREE\DEBUG\VC141.PDB
^E:\DOCUMENTATIE\SMART GIT\RULEOFTHREE\RULEOFTHREE\RULEOFTHREE\RULEOFTHREEPB.CPP
E:\DOCUMENTATIE\SMART GIT\RULEOFTHREE\RULEOFTHREE\RULEOFTHREE\DEBUG\VC141.PDB
